{
    "DoesMatchGameobject": {
        "prefix": "DoesMatchGameobject",
        "body": [
            "bool ${variable} = gameObjectID1.DoesMatch(${value});"
        ],
        "description": "[GSO/GameObject] - Indique si ce GameObjectID correspond à l'ID transmis. | https://api.trainznation.io/gso/game_object_id"
    },
    "DoesMatchGsoObject": {
        "prefix": "DoesMatchGsoObject",
        "body": [
            "bool ${variable} = gameObjectID1.DoesMatch(${value});"
        ],
        "description": "[GSO/GameObject] - Indique si ce GameObjectID correspond à l'objet transmis. | https://api.trainznation.io/gso/game_object_id"
    },
    "GetDebugString": {
        "prefix": "GetDebugString",
        "body": [
            "string ${variable} = gameObjectID.GetDebugString();"
        ],
        "description": "[GSO/GameObject] - Renvoie une chaîne décrivant le contenu de cet ID, à utiliser dans les journaux de débogage. | https://api.trainznation.io/gso/game_object_id"
    },
    "SerializeToString": {
        "prefix": "SerializeToString",
        "body": [
            "string ${variable} = gameObjectID.SerialiseToString();"
        ],
        "description": "[GSO/GameObject] - Retourne une chaîne lisible par machine représentant ce GameObjectID et analysable par Router.SerialiseGameObjectIDFromString(). Cela permet à un GameObjectID d'être temporairement stocké dans un lien HTML ou similaire. | https://api.trainznation.io/gso/game_object_id"
    }
}